MAT 212 - Winter 2025 – SLR: Simulation-based inference
…
Computing the CI for the slope II

Take 100 bootstrap samples and fit models to each one:

set.seed(1120)

boot_fits <- heb |>
  specify(Number_Organic ~ Avg_Income_K) |>
  generate(reps = 100, type = "bootstrap") |>
  fit()

boot_fits

# A tibble: 200 × 3
# Groups:   replicate [100]
   replicate term         estimate
       <int> <chr>           <dbl>
 1         1 intercept     -40.9  
 2         1 Avg_Income_K    1.25 
 3         2 intercept     -23.9  
 4         2 Avg_Income_K    1.09 
 5         3 intercept     -18.6  
 6         3 Avg_Income_K    1.02 
 7         4 intercept      -1.96 
 8         4 Avg_Income_K    0.828
 9         5 intercept     -15.1  
10         5 Avg_Income_K    0.951
# ℹ 190 more rows
…
Simulate new samples from the original sample via permutation

Fit models to each of the samples and estimate the slope

Use features of the distribution of the permuted slopes to conduct a hypothesis test

Permutation, described

Use permuting to simulate data under the assumption the null hypothesis is true and measure the natural variability in the data due to sampling, not due to variables being correlated

Permute/shuffle response variable to eliminate any existing relationship with explanatory variable

Each Number_Organic value is randomly assigned to the Avg_Household_K, i.e. Number_Organic and Avg_Household_K are no longer matched for a given store

# A tibble: 37 × 3
   Number_Organic_Original Number_Organic_Permuted Avg_Income_K
                     <dbl>                   <dbl>        <dbl>
 1                      36                      73         71.2
 2                       4                      29         34.2
 3                      28                      35         71.2
 4                      31                      38         48.8
 5                      78                      78         78.1
 6                      14                      14         40.5
 7                      12                      82         38.2
 8                      18                      31         50.4
 9                      38                       4         49.4
10                      84                      12         66.1
# ℹ 27 more rows
…
Permutation pipeline I

set.seed(1218)

heb |>
  specify(Number_Organic ~ Avg_Income_K)

Response: Number_Organic (numeric)
Explanatory: Avg_Income_K (numeric)
# A tibble: 37 × 2
   Number_Organic Avg_Income_K
            <dbl>        <dbl>
 1             36         71.2
 2              4         34.2
 3             28         71.2
 4             31         48.8
 5             78         78.1
 6             14         40.5
 7             12         38.2
 8             18         50.4
 9             38         49.4
10             84         66.1
# ℹ 27 more rows

Permutation pipeline II

set.seed(1218)

heb |>
  specify(Number_Organic ~ Avg_Income_K) |>
  hypothesize(null = "independence")

Response: Number_Organic (numeric)
Explanatory: Avg_Income_K (numeric)
Null Hypothesis: independence
# A tibble: 37 × 2
   Number_Organic Avg_Income_K
            <dbl>        <dbl>
 1             36         71.2
 2              4         34.2
 3             28         71.2
 4             31         48.8
 5             78         78.1
 6             14         40.5
 7             12         38.2
 8             18         50.4
 9             38         49.4
10             84         66.1
# ℹ 27 more rows

Permutation pipeline III

set.seed(1218)

heb |>
  specify(Number_Organic ~ Avg_Income_K) |>
  hypothesize(null = "independence") |>
  generate(reps = 1000, type = "permute")

Response: Number_Organic (numeric)
Explanatory: Avg_Income_K (numeric)
Null Hypothesis: independence
# A tibble: 37,000 × 3
# Groups:   replicate [1,000]
   Number_Organic Avg_Income_K replicate
            <dbl>        <dbl>     <int>
 1             38         71.2         1
 2             56         34.2         1
 3             28         71.2         1
 4             14         48.8         1
 5             29         78.1         1
 6             36         40.5         1
 7             84         38.2         1
 8             18         50.4         1
 9             96         49.4         1
10             26         66.1         1
# ℹ 36,990 more rows

Permutation pipeline IV

set.seed(1218)

heb |>
  specify(Number_Organic ~ Avg_Income_K) |>
  hypothesize(null = "independence") |>
  generate(reps = 1000, type = "permute") |>
  fit()

# A tibble: 2,000 × 3
# Groups:   replicate [1,000]
   replicate term         estimate
       <int> <chr>           <dbl>
 1         1 intercept     47.8   
 2         1 Avg_Income_K   0.0555
 3         2 intercept     58.0   
 4         2 Avg_Income_K  -0.0914
 5         3 intercept     57.3   
 6         3 Avg_Income_K  -0.0817
 7         4 intercept     78.9   
 8         4 Avg_Income_K  -0.394 
 9         5 intercept     34.8   
10         5 Avg_Income_K   0.244 
# ℹ 1,990 more rows
…
